﻿{
  "ListaVacia": "Lista vacia de formas",
  "ReporteFormas": "Reporte de formas",
  "Figura": "Figura",
  "Circulo": "Circulo",
  "Cuadrado": "Cuadrado",
  "Trapecio": "Trapecio",
  "Triangulo": "Triangulo",
  "Cantidad": "Cantidad",
  "Area": "Area",
  "Perimetro": "Perimetro",
  "Subtotal": "Subtotal",
  "Total": "Total"
}